…
``` r
DataSubset <- as_tibble(DataSubset) # convert data frame to tibble
```

Inspect Data
------------

The following code chunk evaluates the subsetted data. It first checks for missing data for each variable. It then checks for missing data for each variable in each observation. Then it checks for duplicate observations with the `PATENT` variable to determine if that variable can be used as a unique identifier for each observation. Finally, it checks for duplicate observations across all variables to ensure that each observation is unique.

``` r
miss_var_summary(DataSubset, order = TRUE)
```

    ## # A tibble: 23 x 3
    ##    variable n_miss pct_miss
    ##    <chr>     <int>    <dbl>
    ##  1 CLAIMS   153486   100   
    ##  2 SECDUPBD 148958    97.0 
    ##  3 SECDLWBD 148958    97.0 
    ##  4 GENERAL  148403    96.7 
    ##  5 FWDAPLAG 148402    96.7 
    ##  6 SELFCTUB  27063    17.6 
    ##  7 SELFCTLB  27063    17.6 
    ##  8 ASSIGNEE  22782    14.8 
    ##  9 ORIGINAL   5137     3.35
    ## 10 RATIOCIT   4616     3.01
    ## # ... with 13 more rows

``` r
miss_case_summary(DataSubset, order = TRUE)
```

    ## # A tibble: 153,486 x 3
    ##     case n_miss pct_miss
    ##    <int>  <int>    <dbl>
    ##  1   858     11     47.8
    ##  2   951     11     47.8
    ##  3  1402     11     47.8
    ##  4  1482     11     47.8
    ##  5  2308     11     47.8
    ##  6  2659     11     47.8
    ##  7  3262     11     47.8
    ##  8  3291     11     47.8
    ##  9  3306     11     47.8
    ## 10  3424     11     47.8
    ## # ... with 153,476 more rows
…
